br/com/nex2you/service/EmpresaService.class
br/com/nex2you/service/PerfilService.class
br/com/nex2you/vo/EmpresaListVO.class
br/com/nex2you/service/UserService.class
br/com/nex2you/controller/IndexController.class
br/com/nex2you/controller/CategoriasEmpresasController.class
br/com/nex2you/service/ContaClienteItemService.class
br/com/nex2you/vo/ContaClienteListVO.class
br/com/nex2you/controller/ContasClientesController.class
br/com/nex2you/vo/ContaClienteItemListVO.class
br/com/nex2you/controller/ClientesController.class
br/com/nex2you/controller/HomeController.class
br/com/nex2you/service/ProdutoService.class
br/com/nex2you/service/ContaClienteService.class
br/com/nex2you/interceptor/LoginInterceptor.class
br/com/nex2you/utils/RelatorioXLS.class
br/com/nex2you/model/Perfil.class
br/com/nex2you/repository/ContaClienteRepository.class
br/com/nex2you/controller/LoginController.class
br/com/nex2you/controller/EmpresasController.class
br/com/nex2you/service/EstadoService.class
br/com/nex2you/model/ProdutoImagem.class
br/com/nex2you/repository/EmpresaRepository.class
br/com/nex2you/model/Cliente.class
br/com/nex2you/controller/UsuariosController.class
br/com/nex2you/repository/ProdutoImagemRepository.class
br/com/nex2you/controller/PreferenciasClientesController.class
br/com/nex2you/controller/MinhaEmpresaController.class
br/com/nex2you/vo/CategoriaProdutoListVO.class
br/com/nex2you/repository/ProdutoRepository.class
br/com/nex2you/repository/ContaClienteItemRepository.class
br/com/nex2you/model/ContaCliente.class
br/com/nex2you/controller/EstadosController.class
br/com/nex2you/repository/ClienteRepository.class
br/com/nex2you/controller/PerfisController.class
br/com/nex2you/model/CategoriaProduto.class
br/com/nex2you/model/Estado.class
br/com/nex2you/vo/UsuarioListVO.class
br/com/nex2you/service/PreferenciaClienteService.class
br/com/nex2you/repository/UsuarioRepository.class
br/com/nex2you/repository/CategoriaEmpresaRepository.class
br/com/nex2you/model/Empresa.class
br/com/nex2you/vo/PerfilListVO.class
br/com/nex2you/utils/Nex2YouDAO.class
br/com/nex2you/controller/CategoriaProdutoController.class
br/com/nex2you/model/CategoriaEmpresa.class
br/com/nex2you/model/PreferenciaCliente.class
br/com/nex2you/repository/EstadoRepository.class
br/com/nex2you/service/ClienteService.class
br/com/nex2you/controller/ProdutosController.class
br/com/nex2you/model/ContaClienteItem.class
br/com/nex2you/repository/PerfilRepository.class
br/com/nex2you/model/Produto.class
br/com/nex2you/utils/Nex2YouBean.class
br/com/nex2you/repository/CategoriaProdutoRepository.class
br/com/nex2you/repository/UserRepository.class
br/com/nex2you/service/ProdutoImagemService.class
br/com/nex2you/model/Role.class
br/com/nex2you/service/CategoriaProdutoService.class
br/com/nex2you/vo/ProdutoListVO.class
br/com/nex2you/model/User.class
br/com/nex2you/model/Usuario.class
br/com/nex2you/repository/PreferenciaClienteRepository.class
br/com/nex2you/service/CategoriaEmpresaService.class
br/com/nex2you/utils/Nex2YouController.class
br/com/nex2you/service/UsuarioService.class
